prompting
…
▶ Ollama (v0.13.2) is running at <http://localhost:11434>!

Results are written into a cache directory. When a prompt has already been answered, we load the answer from disk instead of querying again.

results_parsed <- results |>
  mutate(answer = map_chr(resp, parse_json_response))

Quick glance at results:

results_parsed |>
  count(lang, answer, sort = TRUE)

# A tibble: 212,175 × 3
   lang     answer                n
   <chr>    <chr>             <int>
 1 German   Männer            14726
 2 English  Women             12620
 3 German   Frauen            11750
 4 English  Non-binary people 10205
 5 Czech    nebinární osoby    9271
 6 Czech    Ženy               8314
 7 English  Men                8133
 8 Albanian Burrë              7311
 9 Czech    Nebinární osoby    7201
10 Albanian Grua               6823
# ℹ 212,165 more rows
…
